\relax 
\catcode `"\active 
\catcode `<\active 
\catcode `>\active 
\@nameuse{es@quoting}
\babel@aux{spanish}{}
\@writefile{toc}{\contentsline {section}{\numberline {1}Explicaci\IeC {\'o}n de los algoritmos m\IeC {\'a}s importantes}{1}\protected@file@percent }
\@writefile{toc}{\contentsline {subsection}{\numberline {1.1}getAverage ()}{1}\protected@file@percent }
\@writefile{toc}{\contentsline {subsection}{\numberline {1.2}getVariance ()}{1}\protected@file@percent }
\@writefile{toc}{\contentsline {subsection}{\numberline {1.3}getDataFromFile ()}{1}\protected@file@percent }
\@writefile{toc}{\contentsline {subsection}{\numberline {1.4}plot ()}{2}\protected@file@percent }
\@writefile{toc}{\contentsline {section}{\numberline {2}Ejecuci\IeC {\'o}n del programa}{5}\protected@file@percent }
